{
    "serverPort": 9860,
    "db": {
        "connectUrl": "mongodb://hkgx1lnx501-dck.ete.cathaypacific.com:27117,hkgx1lnx502-dck.ete.cathaypacific.com:27117,hkgx1lnx503-dck.ete.cathaypacific.com:27117",
        "dbName": "jumpseat",
        "dbUsername": "jsuser",
        "dbPassword": "GEnpX_AP7VbrruqGhbe*sGwvvaGm%4_="
    },
    "superUser":{
        "name":"admin",
        "password":"b[KU5x&>~Pl2}XO"
    },
    "authSecret":"7ytb=Xj$PNaHNkHPN65W-q-CX3NJA7xwQ3xZ",
    "microService": {
        "ldapUrl": "http://localhost:9820",
        "ruleEngineUrl": "http://localhost:9880",
        "fabricxUrl": "http://localhost:9830"
    },
    "storagePath": {
        "logs": "/data/js-commit-jumpseat/logs"
    },
    "certNKey": null,
    "checkADGroups": [
        "CN=CommitJS_FlightController",
        "APT Flight Control",
        "APT Flight Control R"
    ]
}